UFSCar - Universidade Federal de São Carlos ACIEPE - Introdução à Ciência de Dados Usando R Lista 1
…
As próximas questões são referentes ao conjunto de dados fornecido. Ele é oriundo do https://www.kaggle.com/harshitshankhdhar/imdb-dataset-of-top-1000-movies-and-tv-shows/version/1 e contém os mil filmes e programas de TV mais bem avaliados no IMDB. Para cada questão, forneça o código R necessário para recuperar o que está sendo requerido (usando o tidyverse). ATENÇÃO: Diversas descrições sobre o conjunto de dados são fornecidas nas descrições das questões. Use-as para formular suas respostas (de maneira geral)!

Carregando o arquivo .csv:

library(tidyverse)
top_1000_IMBD <- read_csv("imdb_top_1000.csv")

a) Recupere os filmes do gênero Drama (note que um filme pode ter vários gêneros).

Possíveis soluções:

filmes_IMDB_drama <- filter(top_1000_IMBD, str_detect(Genre, "Drama"))
filmes_IMDB_drama

# A tibble: 724 x 16
   Poster_Link  Series_Title Released_Year Certificate Runtime Genre IMDB_Rating
   <chr>        <chr>        <chr>         <chr>       <chr>   <chr>       <dbl>
 1 https://m.m~ The Shawsha~ 1994          A           142 min Drama         9.3
 2 https://m.m~ The Godfath~ 1972          A           175 min Crim~         9.2
 3 https://m.m~ The Dark Kn~ 2008          UA          152 min Acti~         9  
 4 https://m.m~ The Godfath~ 1974          A           202 min Crim~         9  
 5 https://m.m~ 12 Angry Men 1957          U           96 min  Crim~         9  
 6 https://m.m~ The Lord of~ 2003          U           201 min Acti~         8.9
 7 https://m.m~ Pulp Fiction 1994          A           154 min Crim~         8.9
 8 https://m.m~ Schindler's~ 1993          A           195 min Biog~         8.9
 9 https://m.m~ Fight Club   1999          A           139 min Drama         8.8
10 https://m.m~ The Lord of~ 2001          U           178 min Acti~         8.8
# ... with 714 more rows, and 9 more variables: Overview <chr>,
#   Meta_score <dbl>, Director <chr>, Star1 <chr>, Star2 <chr>, Star3 <chr>,
#   Star4 <chr>, No_of_Votes <dbl>, Gross <dbl>
…
# A tibble: 1 x 2
  média_ano média_votos
      <dbl>       <dbl>
1     1998.     404172.

#entretanto, o esperado é:

media_filmes_acao <- filter(top_1000_IMBD, str_detect(Genre, "Action")) %>%
  group_by(Released_Year) %>%
  summarize(média_votos = mean(No_of_Votes, na.rm = TRUE))
media_filmes_acao

# A tibble: 61 x 2
   Released_Year média_votos
   <chr>               <dbl>
 1 1924                41985
 2 1926                81156
 3 1932                25312
 4 1938                47175
 5 1948                32581
 6 1949                29807
 7 1954               315744
 8 1959                56305
 9 1960                87719
10 1961               111244
# ... with 51 more rows
…
